Name,Sex,BirthDate,BodyweightKg,WeightClassKg,Division,Squat1Kg,Squat2Kg,Squat3Kg,Squat4Kg,Best3SquatKg,Bench1Kg,Bench2Kg,Bench3Kg,Bench4Kg,Best3BenchKg,Deadlift1Kg,Deadlift2Kg,Deadlift3Kg,Deadlift4Kg,Best3DeadliftKg,TotalKg,Place,Country,Equipment,Event
Elaine Corbett,F,1983-02-28,46.6,48,F_OCR_AWPC,100,-107.5,107.5,,107.5,50,-52.5,-52.5,,50,122.5,-130,-140,,122.5,280,1,Ireland,Wraps,SBD
Rachel Measures,F,1983-06-03,51.9,52,F_OCR_AWPC,67.5,72.5,-75,,72.5,42.5,-47.5,-47.5,,42.5,125,133.5,-135,,133.5,248.5,1,UK,Wraps,SBD
Alice Higgins,F,1996-02-11,55,56,F_OCR_AWPC,135,-145,-145,,135,57.5,60,-62.5,,60,135,142.5,-147.5,,142.5,337.5,1,UK,Wraps,SBD
Chloe Andrews #1,F,1999-05-28,55.9,56,F_JCR_AWPC,80,90,95,,95,45,50,-55,,50,120,130,-136,,130,275,1,Ireland,Wraps,SBD
Jennifer Childerhouse,F,2001-07-05,59.4,60,F_JCR_AWPC,120,-127.5,127.5,133,127.5,40,45,-50,,45,110,120,122.5,,122.5,295,1,UK,Wraps,SBD
Robin Miller,F,1969-09-28,59.7,60,F_MCR_3_AWPC,85,97.5,-100,,97.5,72.5,75,77.5,-80,77.5,132.5,150,-163,,150,325,1,USA,Wraps,SBD
Chanel Voong Hamilton,F,1992-12-23,59.1,60,F_OCR_AWPC,105,112.5,-120,,112.5,45,50,-52.5,,50,140,150,,,150,312.5,1,UK,Wraps,SBD
Adele Davis,F,1982-01-24,65.8,67.5,F_OCR_AWPC,-165,165,172.5,,172.5,82.5,-85,-85,,82.5,165,175,180,,180,435,1,UK,Wraps,SBD
Carolyn Coates,F,1997-12-18,73.9,75,F_JCR_AWPC,135,145,150,,150,60,-65,65,,65,145,161,165,,165,380,1,UK,Wraps,SBD
Hermione Henry,F,1990-09-20,74.4,75,F_OCR_AWPC,160,-167.5,-167.5,,160,77.5,82.5,-85,,82.5,172.5,187.5,-190,,187.5,430,1,UK,Wraps,SBD
Dora Lontro,F,1987-10-23,74.6,75,F_OCR_AWPC,100,105,-110,,105,50,55,-57.5,,55,120,-125,125,,125,285,2,Portugal,Wraps,SBD
Katie Edwards #3,F,,88.7,90,F_OCR_AWPC,162.5,165,175,,175,85,90,-92.5,,90,180,187.5,-191,,187.5,452.5,1,UK,Wraps,SBD
Pauline Dolan,F,1957-09-17,87.5,90,F_MCR_5_AWPC,-105,105,110,,110,57.5,62.5,65,,65,135,140,147.5,,147.5,322.5,1,UK,Wraps,SBD
Alex Young #2,F,1991-02-05,125.9,90+,F_OCR_AWPC,130,-145,-150,,130,75,85,-95,,85,120,135,-150,,135,350,1,UK,Wraps,SBD
Viv Dickinson,F,1981-07-23,90.9,90+,F_MCR_1_AWPC,-127.5,-137.5,137.5,,137.5,70,72.5,75,-90.5,75,120,-127.5,-127.5,,120,332.5,1,UK,Wraps,SBD
Arlette Bomahou,F,1975-08-09,96.7,90+,F_MCR_2_AWPC,80,92.5,102.5,,102.5,62.5,-70,-70,,62.5,132.5,-142.5,-145,,132.5,297.5,1,Ireland,Wraps,SBD
Michael Bland #1,M,1995-10-07,74.5,75,M_OCR_AWPC,165,175,185,,185,110,117.5,122.5,,122.5,185,200,-210,,200,507.5,1,UK,Wraps,SBD
Zeeshan Naveed,M,1997-05-13,68.4,75,M_OCR_AWPC,180,190,-200,,190,90,-95,-95,,90,185,200,215,,215,495,2,UK,Wraps,SBD
Oisin Smith,M,2005-09-30,80.8,82.5,M_TCR_2_AWPC,155,160,-162.5,,160,82.5,87.5,-92.5,,87.5,190,-197.5,-197.5,,190,437.5,1,Ireland,Wraps,SBD
Alex Ayres,M,1992-07-27,82.2,82.5,M_OCR_AWPC,250,265,277.5,,277.5,165,-175,-175,,165,250,-265,265,,265,707.5,1,UK,Wraps,SBD
Ben McNicol,M,2003-12-19,88.9,90,M_TCR_2_AWPC,210,225,-237.5,,225,117.5,122.5,-127.5,,122.5,215,230,240,,240,587.5,1,UK,Wraps,SBD
Arjun Singh Mandeir,M,2000-04-24,89.1,90,M_JCR_AWPC,182.5,192.5,200,,200,135,142.5,147.5,,147.5,235,257.5,265,,265,612.5,1,UK,Wraps,SBD
Mark Cosgrove,M,1988-04-09,89,90,M_OCR_AWPC,235,245,255,,255,142.5,150,155,,155,230,240,250,,250,660,1,Ireland,Wraps,SBD
Frazer Sargordi-Marriott,M,1990-05-22,88.3,90,M_OCR_AWPC,227.5,235,-247.5,,235,142.5,150,-155,,150,240,,,,240,625,2,UK,Wraps,SBD
Peter Byrne,M,1992-04-16,88.7,90,M_OCR_AWPC,187.5,205,-210,,205,135,-147.5,-147.5,,135,225,242.5,-245,,242.5,582.5,3,UK,Wraps,SBD
Cejai Lindsay,M,1998-06-09,96.9,100,M_JCR_AWPC,240,255,-265,,255,180,182.5,-190,,182.5,250,-275,275,,275,712.5,1,UK,Wraps,SBD
Stewart Hill,M,1989-02-28,99.8,100,M_OCR_AWPC,225,240,245,,245,145,155,160,,160,250,265,272.5,,272.5,677.5,1,UK,Wraps,SBD
Pete Tryner,M,1972-03-07,97.5,100,M_OCR_AWPC,225,-237.5,-237.5,,225,142.5,150,-152.5,,150,275,287.5,-300,,287.5,662.5,2,UK,Wraps,SBD
Martin O Mahony,M,1979-11-16,98.6,100,M_MR_1_AWPC,185,195,202.5,,202.5,127.5,132.5,137.5,,137.5,255,265,280,,280,620,1,Ireland,Raw,SBD
Pete Tryner,M,1972-08-07,97.9,100,M_MCR_2_AWPC,225,-237.5,-237.5,,225,142.5,150,-152.5,,150,275,287.5,-300,,287.5,662.5,1,UK,Wraps,SBD
Brendan O'Rourke,M,1976-06-01,95.5,100,M_MCR_2_AWPC,185,200,-212.5,,200,135,145,-152.5,,145,230,-245,250,,250,595,2,Ireland,Wraps,SBD
Nick Simpson #1,M,1971-05-15,99,100,M_MCR_3_AWPC,-202.5,-202.5,202.5,,202.5,155,167.5,-170,,167.5,-202.5,227.5,230,,230,600,1,UK,Wraps,SBD
John Dolan #2,M,1955-11-19,96.5,100,M_MCR_6_AWPC,115,120,125,,125,85,-90,-90,,85,-135,135,140,,140,350,1,UK,Wraps,SBD
Nathan Green,M,2003-12-17,108.5,110,M_TCR_2_AWPC,125,135,-142.5,,135,70,75,-82.5,,75,180,-200,-200,,180,390,1,UK,Wraps,SBD
Jamie Dobson,M,1990-01-02,109.2,110,M_OCR_AWPC,170,180,-190,,180,122.5,127.5,-132.5,,127.5,240,-260,-260,,240,547.5,1,UK,Wraps,SBD
Richard Baker #2,M,1969-09-14,108.1,110,M_MCR_3_AWPC,240,-250,-250,,240,155,160,-165,,160,255,-266,-266,,255,655,1,UK,Wraps,SBD
Lee McCafferty,M,2002-02-27,123.6,125,M_TCR_3_AWPC,215,235,255,,255,140,152.5,157.5,,157.5,205,220,-230,,220,632.5,1,Ireland,Wraps,SBD
Hugo Quinteiro,M,1982-12-14,123.7,125,M_OCR_AWPC,250,275,290,,290,160,170,-180,,170,300,327.5,-345.5,,327.5,787.5,1,Brazil,Wraps,SBD
Julian McKerrow,M,1990-06-30,123,125,M_OCR_AWPC,-260,260,-280,,260,190,-200.5,-200.5,,190,305,-320,-320,,305,755,2,UK,Wraps,SBD
Tegan Eason,F,2007-02-01,45,48,F_TR_1_AWPC,72.5,82.5,-91,,82.5,30,35,40,,40,72.5,82.5,90,,90,212.5,1,UK,Raw,SBD
Kim Duggan,F,1971-05-27,54.6,56,F_MR_3_AWPC,85,90,92.5,95,92.5,52.5,57.5,-60,,57.5,125,135,140,142.5,140,290,1,Ireland,Raw,SBD
Tamara Dunkley,F,1997-01-19,58.6,60,F_OR_AWPC,142.5,-152.5,152.5,-160,152.5,62.5,67.5,-70,,67.5,150,160,167.5,-173,167.5,387.5,1,UK,Raw,SBD
Michaela Owen-Clark,F,1986-03-30,66.5,67.5,F_OR_AWPC,135,-140,-150,,135,75,-85,-85,,75,155,160,-170,,160,370,1,UK,Raw,SBD
Poipin Douglas,F,1975-12-28,62.5,67.5,F_MR_2_AWPC,72.5,77.5,80,,80,47.5,50,-55,,50,90,95,100,,100,230,1,Ireland,Raw,SBD
Hetty Salmon,F,1966-06-14,79.5,82.5,F_MR_4_AWPC,-85,85,95,-100,95,52.5,57.5,62.5,-65,62.5,105,-115,115,,115,272.5,1,UK,Raw,SBD
Allana Hillman,F,2005-08-05,86.2,90,F_TR_2_AWPC,130,-140,150,,150,55,62.5,-65,,62.5,130,132.5,135,-145,135,347.5,1,UK,Raw,SBD
Alex Young #2,F,1991-02-05,125.8,90+,F_OR_AWPC,145,152.5,165,,165,-90,-90,-90,,,,,,,,,DQ,UK,Raw,SBD
Ocean Davies,M,2007-09-17,39.6,52,M_TR_1_AWPC,62.5,67.5,70,,70,35,37.5,-40,,37.5,92.5,97.5,100,,100,207.5,1,UK,Raw,SBD
Gregory Pearson,M,2007-11-06,65.3,67.5,M_TR_1_AWPC,157.5,165.5,170,,170,107.5,112.5,-115,,112.5,180,190,200,,200,482.5,1,UK,Raw,SBD
Charlie Dimmock,M,2001-12-12,66.2,67.5,M_TR_3_AWPC,165,172.5,180,,180,100,107.5,110,,110,200,-210,210,,210,500,1,UK,Raw,SBD
Mark Skinner #1,M,1978-10-06,66.8,67.5,M_MR_1_AWPC,125,-135,-135,,125,90,100,-107.5,,100,155,165,-170,,165,390,1,UK,Raw,SBD
David Dorrell,M,1990-07-04,74.2,75,M_OR_AWPC,145,-165,165,,165,110,-120,-120,,110,175,-190,-190,,175,450,1,UK,Raw,SBD
Tom Brindley,M,1994-10-07,74.4,75,M_OR_AWPC,117.5,132.5,145,,145,85,-92.5,-92.5,,85,155,160,-170,,160,390,2,UK,Raw,SBD
David Garcia #22,M,1998-08-19,81.7,82.5,M_JR_AWPC,140,165,-170,,165,115,120,127.5,,127.5,-180,190,-210,,190,482.5,1,Spain,Raw,SBD
James Baldwin #2,M,1996-08-31,81.6,82.5,M_OR_AWPC,155,160,165,,165,122.5,127.5,130,,130,200,207.5,215,,215,510,1,Ireland,Raw,SBD
Enda Staunton,M,1983-03-28,80.7,82.5,M_OR_AWPC,165,172.5,180,,180,97.5,105,-110,,105,170,190,-200,,190,475,2,Ireland,Raw,SBD
Niall O'Keeffe,M,1976-11-20,82.2,82.5,M_MR_1_AWPC,160,175,180,,180,155,-165,-166,,155,190,210,215,,215,550,1,Ireland,Raw,SBD
David Carroll #1,M,1970-05-15,81.6,82.5,M_MR_3_AWPC,135,145,-150,,145,97.5,-105,-105,,97.5,160,170,-180,,170,412.5,1,Ireland,Raw,SBD
Peter Oram,M,1954-06-15,87,90,M_MR_6_AWPC,130,-140,140,,140,77.5,-85,-85,,77.5,205,216,-227.5,,216,433.5,1,UK,Raw,SBD
Mark Johnson #1,M,1960-11-16,99.4,100,M_MR_5_AWPC,-150,-150,150,,150,90,-95,,,90,185,195,-202.5,,195,435,1,UK,Raw,SBD
Allison Hough,F,1966-04-29,67.1,67.5,F_MES_4_AWPC,110,120,130,,130,90,95,100,102,100,100,110,,,110,340,1,UK,Single-ply,SBD
Darragh O'Keeffe,M,2002-12-06,88.2,90,M_TEM_3_AWPC,255,272.5,-282.5,,272.5,170,175,-180,,175,255,-270,-270,,255,702.5,1,Ireland,Multi-ply,SBD
Daniel Fonseca,M,1981-06-29,92.3,100,M_MEM_1_AWPC,,,,,,260,280,,,280,,,,,,280,1,Portugal,Multi-ply,B
Richard Evans,M,1967-06-11,162.7,140+,M_MES_3_AWPC,,,,,,177.5,185,-187.5,,185,,,,,,185,1,UK,Single-ply,B
Louise Picknett,F,1962-10-17,81.2,82.5,F_MR_4_AWPC,,,,,,42.5,45,-47.5,,45,,,,,,45,1,UK,Raw,B
Andrew Rae,M,1966-10-15,71.7,75,M_MR_4_AWPC,,,,,,97.5,100,-107.5,,100,,,,,,100,1,UK,Raw,B
Brendan O'Rourke,M,1976-06-01,96.4,100,M_MR_2_AWPC,,,,,,137.5,145,-150,,145,,,,,,145,1,Ireland,Raw,B
David Garcia #22,M,1998-09-19,83.3,90,M_JR_AWPC,,,,,,120,-127.5,127.5,,127.5,,,,,,127.5,1,Spain,Raw,B
John MacDonald #3,M,1966-11-03,87.7,90,M_MR_4_AWPC,,,,,,137.5,142.5,-147.5,,142.5,,,,,,142.5,1,UK,Raw,B
Pedro Lopes,M,1997-11-20,82.2,82.5,M_JEM_AWPC,,,,,,,,,,,245,-262.5,-262.5,,245,245,1,Portugal,Multi-ply,D
Natalia Hípola,F,1982-03-14,60.7,67.5,F_OR_AWPC,,,,,,,,,,,145,-160,-160,,145,145,1,Spain,Raw,D
Ines Tafula,F,1985-03-08,65.2,67.5,F_OR_AWPC,,,,,,,,,,,115,120,127.5,,127.5,127.5,2,Portugal,Raw,D
Gadea Pascual,M,1999-01-26,73,75,M_JR_AWPC,,,,,,,,,,,120,-138,-138,,120,120,1,Spain,Raw,D
Alvaro Fernandes,M,1998-06-15,66.2,67.5,M_JR_AWPC,,,,,,,,,,,190,205,210,,210,210,1,Spain,Raw,D
David Garcia #22,M,1998-09-19,83.7,90,M_JR_AWPC,,,,,,,,,,,170,180,-200,,180,180,1,Spain,Raw,D
Chris Wehbe,M,1982-05-10,89,90,M_OR_AWPC,,,,,,,,,,,227.5,242.5,-252.5,,242.5,242.5,1,UK,Raw,D
Hugo Quinteiro,M,1982-12-14,123.9,125,M_OR_AWPC,,,,,,,,,,,305,330.5,335,,335,335,1,Brazil,Raw,D
Richard Green #2,M,1966-07-19,115.1,125,M_MR_4_AWPC,,,,,,,,,,,220,235,-241,,235,235,1,UK,Raw,D
